BAN400 Exam Fall 2021
…
Working with the raw data also is a time consuming processs. Multidplyr can be used to work with our data frames to speed up the process by assigning processing power to more cores. Note that overhead processes might slow the time here as well due to nodes working together. We assign one group to each node in this case.

Using the multidplyr solution cut the total rmd compiling time with about 15 seconds on the first try.

group <- rep(1:Cores,
             length.out = nrow(citybike_raw))
citybike_raw <- bind_cols(tibble(group),
                          citybike_raw)
citybike_raw

# A tibble: 647,687 x 14
   group started_at     ended_at      duration start_station_id start_station_n~
   <int> <chr>          <chr>            <int> <chr>            <chr>           
 1     1 2021-01-01 04~ 2021-01-01 0~      319 157              Hyteknologisen~
 2     2 2021-01-01 04~ 2021-01-01 0~     1006 36               Torgallmenningen
 3     3 2021-01-01 04~ 2021-01-01 0~      974 36               Torgallmenningen
 4     4 2021-01-01 04~ 2021-01-01 0~      652 301              Lars Hilles     
 5     5 2021-01-01 05~ 2021-01-01 0~      155 814              Nykirken        
 6     6 2021-01-01 05~ 2021-01-01 0~      557 638              Damsgrdsallmen~
 7     7 2021-01-01 06~ 2021-01-01 0~      404 150              Torget          
 8     8 2021-01-01 06~ 2021-01-01 0~      233 638              Damsgrdsallmen~
 9     9 2021-01-01 06~ 2021-01-01 0~      810 156              Allehelgens pla~
10    10 2021-01-01 06~ 2021-01-01 0~      528 794              St. Jakobs Plass
# ... with 647,677 more rows, and 8 more variables:
#   start_station_description <chr>, start_station_latitude <dbl>,
#   start_station_longitude <dbl>, end_station_id <chr>,
#   end_station_name <chr>, end_station_description <chr>,
#   end_station_latitude <dbl>, end_station_longitude <dbl>
…
